{
	"name": "devilstar",
	"loadDefault": true,
	"width": 0.75,
	"height": 0.75,
	"scale": 1.5,
	"damage": 2,
	"pierce": 1,
	"knockbackChance": 0.125,
	"effectDuration": 5,
	"effectAmplifier": 1,
	"velocity": 1.1,
	"weight": 0,
	"lifetime": 40,
	"elements": [
		"void"
	],
	"behaviours": [],
	"waterproof": true,
	"lavaproof": true,
	"cutGrass": false,
	"impactSound": false,
	"ripper": true,
	"pierceBlocks": false,
	"glow": true,
	"rollSpeed": 4
}