{
  "result": {
    "item": "lycanitesmobs:equipmentpart_ironpikejoint"
  },
  "pattern": [
    " I ",
    " H ",
    " I "
  ],
  "key": {
    "H": {
      "item": "lycanitesmobs:equipmentpart_woodenhilt"
    },
    "I": {
      "item": "minecraft:iron_ingot"
    }
  },
  "type": "minecraft:crafting_shaped"
}